test/tb.vcd
$date
	Thu Jul 10 07:18:03 2025
$end
$version
	Icarus Verilog
$end
$timescale
	1ps
$end
$scope module tb $end
$var wire 8 ! uio_oe [7:0] $end
$var wire 8 " uo_out [7:0] $end
$var wire 8 # uio_out [7:0] $end
$var wire 1 $ pwm2_out $end
$var wire 1 % pwm1_out $end
$var wire 1 & pwm0_out $end
$var wire 7 ' dis0_out [6:0] $end
$var wire 1 ( dis0_ctrl $end
$var reg 1 ) clk $end
$var reg 1 * countdown0 $end
$var reg 1 + ena $end
$var reg 1 , enc0_a $end
$var reg 1 - enc0_b $end
$var reg 1 . enc1_a $end
$var reg 1 / enc1_b $end
$var reg 1 0 enc2_a $end
$var reg 1 1 enc2_b $end
$var reg 1 2 rst_n $end
$var reg 8 3 uio_in [7:0] $end
$scope module tt_um_tc503_countdown_timer $end
$var wire 1 ) clk $end
$var wire 1 + ena $end
$var wire 1 2 rst_n $end
$var wire 8 4 ui_in [7:0] $end
$var wire 8 5 uio_in [7:0] $end
$var wire 8 6 uio_oe [7:0] $end
$var wire 8 7 uo_out [7:0] $end
$var wire 8 8 uio_out [7:0] $end
$var wire 1 9 rst $end
$var wire 1 : _unused $end
$scope module countdown_timer $end
$var wire 1 ) clk $end
$var wire 1 ; countdown0 $end
$var wire 1 < enc0_a $end
$var wire 1 = enc0_b $end
$var wire 1 > enc1_a $end
$var wire 1 ? enc1_b $end
$var wire 1 @ enc2_a $end
$var wire 1 A enc2_b $end
$var wire 1 9 reset $end
$var wire 1 B pwm2_out $end
$var wire 1 C pwm1_out $end
$var wire 1 D pwm0_out $end
$var wire 1 E min_chk0 $end
$var wire 1 F enc2_b_db $end
$var wire 1 G enc2_a_db $end
$var wire 8 H enc2 [7:0] $end
$var wire 1 I enc1_b_db $end
$var wire 1 J enc1_a_db $end
$var wire 8 K enc1 [7:0] $end
$var wire 1 L enc0_b_db $end
$var wire 1 M enc0_a_db $end
$var wire 8 N enc0 [7:0] $end
$var wire 7 O dis0_out [6:0] $end
$var wire 1 P dis0_ctrl $end
$var reg 8 Q enc0_C [7:0] $end
$var reg 4 R enc0_H [3:0] $end
$var reg 4 S enc0_L [3:0] $end
$var reg 8 T enc1_C [7:0] $end
$var reg 8 U enc2_C [7:0] $end
$scope module clock_divider0 $end
$var wire 1 ) clk $end
$var wire 1 ; reset $end
$var reg 30 V counter [29:0] $end
$var reg 1 E min_tick $end
$upscope $end
$scope module debounce0_a $end
$var wire 1 < button $end
$var wire 1 ) clk $end
$var wire 1 9 reset $end
$var parameter 32 W HIST_LEN $end
$var parameter 33 X on_value $end
$var reg 8 Y button_hist [7:0] $end
$var reg 1 M debounced $end
$upscope $end
$scope module debounce0_b $end
$var wire 1 = button $end
$var wire 1 ) clk $end
$var wire 1 9 reset $end
$var parameter 32 Z HIST_LEN $end
$var parameter 33 [ on_value $end
$var reg 8 \ button_hist [7:0] $end
$var reg 1 L debounced $end
$upscope $end
$scope module debounce1_a $end
$var wire 1 > button $end
$var wire 1 ) clk $end
$var wire 1 9 reset $end
$var parameter 32 ] HIST_LEN $end
$var parameter 33 ^ on_value $end
$var reg 8 _ button_hist [7:0] $end
$var reg 1 J debounced $end
$upscope $end
$scope module debounce1_b $end
$var wire 1 ? button $end
$var wire 1 ) clk $end
$var wire 1 9 reset $end
$var parameter 32 ` HIST_LEN $end
$var parameter 33 a on_value $end
$var reg 8 b button_hist [7:0] $end
$var reg 1 I debounced $end
$upscope $end
$scope module debounce2_a $end
$var wire 1 @ button $end
$var wire 1 ) clk $end
$var wire 1 9 reset $end
$var parameter 32 c HIST_LEN $end
$var parameter 33 d on_value $end
$var reg 8 e button_hist [7:0] $end
$var reg 1 G debounced $end
$upscope $end
$scope module debounce2_b $end
$var wire 1 A button $end
$var wire 1 ) clk $end
$var wire 1 9 reset $end
$var parameter 32 f HIST_LEN $end
$var parameter 33 g on_value $end
$var reg 8 h button_hist [7:0] $end
$var reg 1 F debounced $end
$upscope $end
$scope module encoder0 $end
$var wire 1 M a $end
$var wire 1 L b $end
$var wire 1 ) clk $end
$var wire 1 9 reset $end
$var parameter 1 i INCREMENT $end
$var parameter 32 j WIDTH $end
$var reg 1 k old_a $end
$var reg 1 l old_b $end
$var reg 8 m value [7:0] $end
$upscope $end
$scope module encoder1 $end
$var wire 1 J a $end
$var wire 1 I b $end
$var wire 1 ) clk $end
$var wire 1 9 reset $end
$var parameter 1 n INCREMENT $end
$var parameter 32 o WIDTH $end
$var reg 1 p old_a $end
$var reg 1 q old_b $end
$var reg 8 r value [7:0] $end
$upscope $end
$scope module encoder2 $end
$var wire 1 G a $end
$var wire 1 F b $end
$var wire 1 ) clk $end
$var wire 1 9 reset $end
$var parameter 1 s INCREMENT $end
$var parameter 32 t WIDTH $end
$var reg 1 u old_a $end
$var reg 1 v old_b $end
$var reg 8 w value [7:0] $end
$upscope $end
$scope module pwm0 $end
$var wire 1 ) clk $end
$var wire 8 x level [7:0] $end
$var wire 1 9 reset $end
$var wire 1 y pwm_on $end
$var parameter 32 z INVERT $end
$var parameter 32 { WIDTH $end
$var reg 8 | count [7:0] $end
$var reg 1 D out $end
$upscope $end
$scope module pwm1 $end
$var wire 1 ) clk $end
$var wire 8 } level [7:0] $end
$var wire 1 9 reset $end
$var wire 1 ~ pwm_on $end
$var parameter 32 !" INVERT $end
$var parameter 32 "" WIDTH $end
$var reg 8 #" count [7:0] $end
$var reg 1 C out $end
$upscope $end
$scope module pwm2 $end
$var wire 1 ) clk $end
$var wire 8 $" level [7:0] $end
$var wire 1 9 reset $end
$var wire 1 %" pwm_on $end
$var parameter 32 &" INVERT $end
$var parameter 32 '" WIDTH $end
$var reg 8 (" count [7:0] $end
$var reg 1 B out $end
$upscope $end
$scope module seven_segment0 $end
$var wire 1 ) clk $end
$var wire 1 )" load $end
$var wire 1 9 reset $end
$var wire 4 *" ten_count [3:0] $end
$var wire 4 +" unit_count [3:0] $end
$var wire 4 ," decode [3:0] $end
$var reg 1 P digit $end
$var reg 7 -" segments [6:0] $end
$var reg 4 ." ten_count_reg [3:0] $end
$var reg 4 /" unit_count_reg [3:0] $end
$upscope $end
$upscope $end
$upscope $end
$upscope $end
$enddefinitions $end
$comment Show the parameter values. $end
$dumpall
b1000 '"
b0 &"
b1000 ""
b0 !"
b1000 {
b0 z
b1000 t
1s
b1000 o
1n
b1000 j
1i
b11111111 g
b1000 f
b11111111 d
b1000 c
b11111111 a
b1000 `
b11111111 ^
b1000 ]
b11111111 [
b1000 Z
b11111111 X
b1000 W
$end
#0
$dumpvars
bx /"
bx ."
bx -"
bx ,"
b0 +"
b0 *"
1)"
b0 ("
0%"
b0 $"
b0 #"
0~
b0 }
b0 |
0y
b0 x
b0 w
0v
0u
b0 r
0q
0p
b0 m
0l
0k
b0 h
b0 e
b0 b
b0 _
b0 \
b0 Y
bx V
b0 U
b0 T
b0 S
b0 R
b0 Q
0P
bx O
b0 N
0M
0L
b0 K
0J
0I
b0 H
0G
0F
0E
0D
0C
0B
0A
0@
0?
0>
0=
0<
x;
0:
19
b0 8
b0xxxxxxx 7
b111 6
bx 5
bx0000000 4
bx 3
02
01
00
0/
0.
0-
0,
x+
x*
1)
0(
bx '
0&
0%
0$
b0 #
b0xxxxxxx "
b111 !
$end
#5000000
0)
#10000000
b111111 '
b111111 "
b111111 7
b111111 O
b111111 -"
b0 ,"
b0 /"
b0 ."
1)
#15000000
0)
#20000000
1)
#25000000
0)
#30000000
1)
#35000000
0)
#40000000
09
12
1)
#45000000
0)
#50000000
1(
b10111111 "
b10111111 7
1P
b1 ("
b1 #"
b1 |
1)
#55000000
0)
#60000000
0(
b10 |
b10 #"
b10 ("
b111111 "
b111111 7
0P
1)
#65000000
0)
#70000000
1(
b10111111 "
b10111111 7
1P
b11 ("
b11 #"
b11 |
1)
#75000000
0)
#80000000
0(
b100 |
b100 #"
b100 ("
b111111 "
b111111 7
0P
1)
#85000000
0)
#90000000
1(
b10111111 "
b10111111 7
1P
b101 ("
b101 #"
b101 |
1)
#95000000
0)
#100000000
0(
b110 |
b110 #"
b110 ("
b111111 "
b111111 7
0P
1)
#105000000
0)
#110000000
1(
b10111111 "
b10111111 7
1P
b111 ("
b111 #"
b111 |
1)
#115000000
0)
#120000000
0(
b1000 |
b1000 #"
b1000 ("
b111111 "
b111111 7
0P
1)
#125000000
0)
#130000000
1(
b10111111 "
b10111111 7
1P
b1001 ("
b1001 #"
b1001 |
1)
#135000000
0)
#140000000
0(
b1010 |
b1010 #"
b1010 ("
b111111 "
b111111 7
0P
1)
#145000000
0)
#150000000
1(
b10111111 "
b10111111 7
1P
b1011 ("
b1011 #"
b1011 |
1)
#155000000
0)
#160000000
0(
b1100 |
b1100 #"
b1100 ("
b111111 "
b111111 7
0P
1)
#165000000
0)
#170000000
1(
b10111111 "
b10111111 7
1P
b1101 ("
b1101 #"
b1101 |
1)
#175000000
0)
#180000000
0(
b1110 |
b1110 #"
b1110 ("
b111111 "
b111111 7
0P
1)
#185000000
0)
#190000000
1<
bx0000001 4
1,
1(
b10111111 "
b10111111 7
1P
b1111 ("
b1111 #"
b1111 |
1)
#195000000
0)
#200000000
0(
b1 Y
b10000 |
b10000 #"
b10000 ("
b111111 "
b111111 7
0P
1)
#205000000
0)
#210000000
0<
bx0000000 4
0,
1(
b10111111 "
b10111111 7
1P
b10001 ("
b10001 #"
b10001 |
b11 Y
1)
#215000000
0)
#220000000
1<
bx0000001 4
1,
0(
b110 Y
b10010 |
b10010 #"
b10010 ("
b111111 "
b111111 7
0P
1)
#225000000
0)
#230000000
1(
b10111111 "
b10111111 7
1P
b10011 ("
b10011 #"
b10011 |
b1101 Y
1)
#235000000
0)
#240000000
0(
b11011 Y
b10100 |
b10100 #"
b10100 ("
b111111 "
b111111 7
0P
1)
#245000000
0)
#250000000
1(
b10111111 "
b10111111 7
1P
b10101 ("
b10101 #"
b10101 |
b110111 Y
1)
#255000000
0)
#260000000
0(
b1101111 Y
b10110 |
b10110 #"
b10110 ("
b111111 "
b111111 7
0P
1)
#265000000
0)
#270000000
1(
b10111111 "
b10111111 7
1P
b10111 ("
b10111 #"
b10111 |
b11011111 Y
1)
#275000000
0)
#280000000
0(
b10111111 Y
b11000 |
b11000 #"
b11000 ("
b111111 "
b111111 7
0P
1)
#285000000
0)
#290000000
1=
bx0000011 4
1-
1(
b10111111 "
b10111111 7
1P
b11001 ("
b11001 #"
b11001 |
b1111111 Y
1)
#295000000
0)
#300000000
0=
bx0000001 4
0-
0(
b11111111 Y
b1 \
b11010 |
b11010 #"
b11010 ("
b111111 "
b111111 7
0P
1)
#305000000
0)
#310000000
1=
bx0000011 4
1-
1(
b10111111 "
b10111111 7
1P
b11011 ("
b11011 #"
b11011 |
b10 \
1M
1)
#315000000
0)
#320000000
0(
b101 \
b1 N
b1 m
b1 x
1k
b11100 |
b11100 #"
b11100 ("
b111111 "
b111111 7
0P
1)
#325000000
0)
#330000000
1(
b1 S
b1 +"
b1 Q
b10111111 "
b10111111 7
1P
b11101 ("
b11101 #"
b11101 |
b1011 \
1)
#335000000
0)
#340000000
b110 '
b110 O
b110 -"
b1 ,"
0(
b10111 \
b11110 |
b11110 #"
b11110 ("
b1 /"
b110 "
b110 7
0P
1)
#345000000
0)
#350000000
b111111 '
b111111 O
b111111 -"
b0 ,"
1(
b10111111 "
b10111111 7
1P
b11111 ("
b11111 #"
b11111 |
b101111 \
1)
#355000000
0)
#360000000
b110 '
b110 O
b110 -"
b1 ,"
0(
b1011111 \
b100000 |
b100000 #"
b100000 ("
b110 "
b110 7
0P
1)
#365000000
0)
#370000000
b111111 '
b111111 O
b111111 -"
b0 ,"
1(
b10111111 "
b10111111 7
1P
b100001 ("
b100001 #"
b100001 |
b10111111 \
1)
#375000000
0)
#380000000
b110 '
b110 O
b110 -"
b1 ,"
0(
b1111111 \
b100010 |
b100010 #"
b100010 ("
b110 "
b110 7
0P
1)
#385000000
0)
#390000000
0<
bx0000010 4
0,
b111111 '
b111111 O
b111111 -"
b0 ,"
1(
b10111111 "
b10111111 7
1P
b100011 ("
b100011 #"
b100011 |
b11111111 \
1)
#395000000
0)
#400000000
b110 '
b110 O
b110 -"
b1 ,"
0(
b11111110 Y
1L
b100100 |
b100100 #"
b100100 ("
b110 "
b110 7
0P
1)
#405000000
0)
#410000000
1<
bx0000011 4
1,
b111111 '
b111111 O
b111111 -"
b0 ,"
1(
b10111111 "
b10111111 7
1P
b100101 ("
b100101 #"
b100101 |
1l
b11111100 Y
1)
#415000000
0)
#420000000
0<
bx0000010 4
0,
b110 '
b110 O
b110 -"
b1 ,"
0(
b11111001 Y
b100110 |
b100110 #"
b100110 ("
b110 "
b110 7
0P
1)
#425000000
0)
#430000000
b111111 '
b111111 O
b111111 -"
b0 ,"
1(
b10111111 "
b10111111 7
1P
b100111 ("
b100111 #"
b100111 |
b11110010 Y
1)
#435000000
0)
#440000000
b110 '
b110 O
b110 -"
b1 ,"
0(
b11100100 Y
b101000 |
b101000 #"
b101000 ("
b110 "
b110 7
0P
1)
#445000000
0)
#450000000
b111111 '
b111111 O
b111111 -"
b0 ,"
1(
b10111111 "
b10111111 7
1P
b101001 ("
b101001 #"
b101001 |
b11001000 Y
1)
#455000000
0)
#460000000
b110 '
b110 O
b110 -"
b1 ,"
0(
b10010000 Y
b101010 |
b101010 #"
b101010 ("
b110 "
b110 7
0P
1)
#465000000
0)
#470000000
b111111 '
b111111 O
b111111 -"
b0 ,"
1(
b10111111 "
b10111111 7
1P
b101011 ("
b101011 #"
b101011 |
b100000 Y
1)
#475000000
0)
#480000000
b110 '
b110 O
b110 -"
b1 ,"
0(
b1000000 Y
b101100 |
b101100 #"
b101100 ("
b110 "
b110 7
0P
1)
#485000000
0)
#490000000
0=
bx0000000 4
0-
b111111 '
b111111 O
b111111 -"
b0 ,"
1(
b10111111 "
b10111111 7
1P
b101101 ("
b101101 #"
b101101 |
b10000000 Y
1)
#495000000
0)
#500000000
1=
bx0000010 4
1-
b110 '
b110 O
b110 -"
b1 ,"
0(
b0 Y
b11111110 \
b101110 |
b101110 #"
b101110 ("
b110 "
b110 7
0P
1)
#505000000
0)
#510000000
0=
bx0000000 4
0-
b111111 '
b111111 O
b111111 -"
b0 ,"
1(
b10111111 "
b10111111 7
1P
b101111 ("
b101111 #"
b101111 |
b11111101 \
0M
1)
#515000000
0)
#520000000
b110 '
b110 O
b110 -"
b1 ,"
0(
b11111010 \
b10 N
b10 m
b10 x
0k
b110000 |
b110000 #"
b110000 ("
b110 "
b110 7
0P
1)
#525000000
0)
#530000000
b111111 '
b111111 O
b111111 -"
b0 ,"
1(
b10 S
b10 +"
b10 Q
b10111111 "
b10111111 7
1P
b110001 ("
b110001 #"
b110001 |
b11110100 \
1)
#535000000
0)
#540000000
b1011011 '
b1011011 O
b1011011 -"
b10 ,"
0(
b11101000 \
b110010 |
b110010 #"
b110010 ("
b10 /"
b1011011 "
b1011011 7
0P
1)
#545000000
0)
#550000000
b111111 '
b111111 O
b111111 -"
b0 ,"
1(
b10111111 "
b10111111 7
1P
b110011 ("
b110011 #"
b110011 |
b11010000 \
1)
#555000000
0)
#560000000
b1011011 '
b1011011 O
b1011011 -"
b10 ,"
0(
b10100000 \
b110100 |
b110100 #"
b110100 ("
b1011011 "
b1011011 7
0P
1)
#565000000
0)
#570000000
b111111 '
b111111 O
b111111 -"
b0 ,"
1(
b10111111 "
b10111111 7
1P
b110101 ("
b110101 #"
b110101 |
b1000000 \
1)
#575000000
0)
#580000000
b1011011 '
b1011011 O
b1011011 -"
b10 ,"
0(
b10000000 \
b110110 |
b110110 #"
b110110 ("
b1011011 "
b1011011 7
0P
1)
#585000000
0)
#590000000
1<
bx0000001 4
1,
b111111 '
b111111 O
b111111 -"
b0 ,"
1(
b10111111 "
b10111111 7
1P
b110111 ("
b110111 #"
b110111 |
b0 \
1)
#595000000
0)
#600000000
b1011011 '
b1011011 O
b1011011 -"
b10 ,"
0(
b1 Y
0L
b111000 |
b111000 #"
b111000 ("
b1011011 "
b1011011 7
0P
1)
#605000000
0)
#610000000
b111111 '
b111111 O
b111111 -"
b0 ,"
1(
b10111111 "
b10111111 7
1P
b111001 ("
b111001 #"
b111001 |
0l
b11 Y
1)
#615000000
0)
#620000000
b1011011 '
b1011011 O
b1011011 -"
b10 ,"
0(
b111 Y
b111010 |
b111010 #"
b111010 ("
b1011011 "
b1011011 7
0P
1)
#625000000
0)
#630000000
b111111 '
b111111 O
b111111 -"
b0 ,"
1(
b10111111 "
b10111111 7
1P
b111011 ("
b111011 #"
b111011 |
b1111 Y
1)
#635000000
0)
#640000000
b1011011 '
b1011011 O
b1011011 -"
b10 ,"
0(
b11111 Y
b111100 |
b111100 #"
b111100 ("
b1011011 "
b1011011 7
0P
1)
#645000000
0)
#650000000
b111111 '
b111111 O
b111111 -"
b0 ,"
1(
b10111111 "
b10111111 7
1P
b111101 ("
b111101 #"
b111101 |
b111111 Y
1)
#655000000
0)
#660000000
b1011011 '
b1011011 O
b1011011 -"
b10 ,"
0(
b1111111 Y
b111110 |
b111110 #"
b111110 ("
b1011011 "
b1011011 7
0P
1)
#665000000
0)
#670000000
b111111 '
b111111 O
b111111 -"
b0 ,"
1(
b10111111 "
b10111111 7
1P
b111111 ("
b111111 #"
b111111 |
b11111111 Y
1)
#675000000
0)
#680000000
b1011011 '
b1011011 O
b1011011 -"
b10 ,"
0(
1M
b1000000 |
b1000000 #"
b1000000 ("
b1011011 "
b1011011 7
0P
1)
#685000000
0)
#690000000
1=
bx0000011 4
1-
b111111 '
b111111 O
b111111 -"
b0 ,"
1(
b10111111 "
b10111111 7
1P
b1000001 ("
b1000001 #"
b1000001 |
b11 N
b11 m
b11 x
1k
1)
#695000000
0)
#700000000
b1011011 '
b1011011 O
b1011011 -"
b10 ,"
0(
b1 \
b1000010 |
b1000010 #"
b1000010 ("
b1011011 "
b1011011 7
0P
b11 S
b11 +"
b11 Q
1)
#705000000
0)
#710000000
b111111 '
b111111 O
b111111 -"
b0 ,"
1(
b11 /"
b10111111 "
b10111111 7
1P
b1000011 ("
b1000011 #"
b1000011 |
b11 \
1)
#715000000
0)
#720000000
b1001111 '
b1001111 O
b1001111 -"
b11 ,"
0(
b111 \
b1000100 |
b1000100 #"
b1000100 ("
b1001111 "
b1001111 7
0P
1)
#725000000
0)
#730000000
b111111 '
b111111 O
b111111 -"
b0 ,"
1(
b10111111 "
b10111111 7
1P
b1000101 ("
b1000101 #"
b1000101 |
b1111 \
1)
#735000000
0)
#740000000
b1001111 '
b1001111 O
b1001111 -"
b11 ,"
0(
b11111 \
b1000110 |
b1000110 #"
b1000110 ("
b1001111 "
b1001111 7
0P
1)
#745000000
0)
#750000000
b111111 '
b111111 O
b111111 -"
b0 ,"
1(
b10111111 "
b10111111 7
1P
b1000111 ("
b1000111 #"
b1000111 |
b111111 \
1)
#755000000
0)
#760000000
b1001111 '
b1001111 O
b1001111 -"
b11 ,"
0(
b1111111 \
b1001000 |
b1001000 #"
b1001000 ("
b1001111 "
b1001111 7
0P
1)
#765000000
0)
#770000000
b111111 '
b111111 O
b111111 -"
b0 ,"
1(
b10111111 "
b10111111 7
1P
b1001001 ("
b1001001 #"
b1001001 |
b11111111 \
1)
#775000000
0)
#780000000
b1001111 '
b1001111 O
b1001111 -"
b11 ,"
0(
1L
b1001010 |
b1001010 #"
b1001010 ("
b1001111 "
b1001111 7
0P
1)
#785000000
0)
#790000000
0<
bx0000010 4
0,
b111111 '
b111111 O
b111111 -"
b0 ,"
1(
b10111111 "
b10111111 7
1P
b1001011 ("
b1001011 #"
b1001011 |
1l
1)
#795000000
0)
#800000000
b1001111 '
b1001111 O
b1001111 -"
b11 ,"
0(
b11111110 Y
b1001100 |
b1001100 #"
b1001100 ("
b1001111 "
b1001111 7
0P
1)
#805000000
0)
#810000000
1<
bx0000011 4
1,
b111111 '
b111111 O
b111111 -"
b0 ,"
1(
b10111111 "
b10111111 7
1P
b1001101 ("
b1001101 #"
b1001101 |
b11111100 Y
1)
#815000000
0)
#820000000
0<
bx0000010 4
0,
b1001111 '
b1001111 O
b1001111 -"
b11 ,"
0(
b11111001 Y
b1001110 |
b1001110 #"
b1001110 ("
b1001111 "
b1001111 7
0P
1)
#825000000
0)
#830000000
b111111 '
b111111 O
b111111 -"
b0 ,"
1(
b10111111 "
b10111111 7
1P
b1001111 ("
b1001111 #"
b1001111 |
b11110010 Y
1)
#835000000
0)
#840000000
b1001111 '
b1001111 O
b1001111 -"
b11 ,"
0(
b11100100 Y
b1010000 |
b1010000 #"
b1010000 ("
b1001111 "
b1001111 7
0P
1)
#845000000
0)
#850000000
b111111 '
b111111 O
b111111 -"
b0 ,"
1(
b10111111 "
b10111111 7
1P
b1010001 ("
b1010001 #"
b1010001 |
b11001000 Y
1)
#855000000
0)
#860000000
b1001111 '
b1001111 O
b1001111 -"
b11 ,"
0(
b10010000 Y
b1010010 |
b1010010 #"
b1010010 ("
b1001111 "
b1001111 7
0P
1)
#865000000
0)
#870000000
b111111 '
b111111 O
b111111 -"
b0 ,"
1(
b10111111 "
b10111111 7
1P
b1010011 ("
b1010011 #"
b1010011 |
b100000 Y
1)
#875000000
0)
#880000000
b1001111 '
b1001111 O
b1001111 -"
b11 ,"
0(
b1000000 Y
b1010100 |
b1010100 #"
b1010100 ("
b1001111 "
b1001111 7
0P
1)
#885000000
0)
#890000000
b111111 '
b111111 O
b111111 -"
b0 ,"
1(
b10111111 "
b10111111 7
1P
b1010101 ("
b1010101 #"
b1010101 |
b10000000 Y
1)
#895000000
0)
#900000000
0=
bx0000000 4
0-
b1001111 '
b1001111 O
b1001111 -"
b11 ,"
0(
b0 Y
b1010110 |
b1010110 #"
b1010110 ("
b1001111 "
b1001111 7
0P
1)
#905000000
0)
#910000000
b111111 '
b111111 O
b111111 -"
b0 ,"
1(
b10111111 "
b10111111 7
1P
b1010111 ("
b1010111 #"
b1010111 |
b11111110 \
0M
1)
#915000000
0)
#920000000
b1001111 '
b1001111 O
b1001111 -"
b11 ,"
0(
b11111100 \
b100 N
b100 m
b100 x
0k
b1011000 |
b1011000 #"
b1011000 ("
b1001111 "
b1001111 7
0P
1)
#925000000
0)
#930000000
b111111 '
b111111 O
b111111 -"
b0 ,"
1(
b100 S
b100 +"
b100 Q
b10111111 "
b10111111 7
1P
b1011001 ("
b1011001 #"
b1011001 |
b11111000 \
1)
#935000000
0)
#940000000
b1100110 '
b1100110 O
b1100110 -"
b100 ,"
0(
b11110000 \
b1011010 |
b1011010 #"
b1011010 ("
b100 /"
b1100110 "
b1100110 7
0P
1)
#945000000
0)
#950000000
b111111 '
b111111 O
b111111 -"
b0 ,"
1(
b10111111 "
b10111111 7
1P
b1011011 ("
b1011011 #"
b1011011 |
b11100000 \
1)
#955000000
0)
#960000000
b1100110 '
b1100110 O
b1100110 -"
b100 ,"
0(
b11000000 \
b1011100 |
b1011100 #"
b1011100 ("
b1100110 "
b1100110 7
0P
1)
#965000000
0)
#970000000
b111111 '
b111111 O
b111111 -"
b0 ,"
1(
b10111111 "
b10111111 7
1P
b1011101 ("
b1011101 #"
b1011101 |
b10000000 \
1)
#975000000
0)
#980000000
b1100110 '
b1100110 O
b1100110 -"
b100 ,"
0(
b0 \
b1011110 |
b1011110 #"
b1011110 ("
b1100110 "
b1100110 7
0P
1)
#985000000
0)
#990000000
1<
bx0000001 4
1,
b111111 '
b111111 O
b111111 -"
b0 ,"
1(
b10111111 "
b10111111 7
1P
b1011111 ("
b1011111 #"
b1011111 |
0L
1)
#995000000
0)
#1000000000
b1100110 '
b1100110 O
b1100110 -"
b100 ,"
0(
b1 Y
0l
b1100000 |
b1100000 #"
b1100000 ("
b1100110 "
b1100110 7
0P
1)
#1005000000
0)
#1010000000
b111111 '
b111111 O
b111111 -"
b0 ,"
1(
b10111111 "
b10111111 7
1P
b1100001 ("
b1100001 #"
b1100001 |
b11 Y
1)
#1015000000
0)
#1020000000
b1100110 '
b1100110 O
b1100110 -"
b100 ,"
0(
b111 Y
b1100010 |
b1100010 #"
b1100010 ("
b1100110 "
b1100110 7
0P
1)
#1025000000
0)
#1030000000
b111111 '
b111111 O
b111111 -"
b0 ,"
1(
b10111111 "
b10111111 7
1P
b1100011 ("
b1100011 #"
b1100011 |
b1111 Y
1)
#1035000000
0)
#1040000000
b1100110 '
b1100110 O
b1100110 -"
b100 ,"
0(
b11111 Y
b1100100 |
b1100100 #"
b1100100 ("
b1100110 "
b1100110 7
0P
1)
#1045000000
0)
#1050000000
b111111 '
b111111 O
b111111 -"
b0 ,"
1(
b10111111 "
b10111111 7
1P
b1100101 ("
b1100101 #"
b1100101 |
b111111 Y
1)
#1055000000
0)
#1060000000
b1100110 '
b1100110 O
b1100110 -"
b100 ,"
0(
b1111111 Y
b1100110 |
b1100110 #"
b1100110 ("
b1100110 "
b1100110 7
0P
1)
#1065000000
0)
#1070000000
b111111 '
b111111 O
b111111 -"
b0 ,"
1(
b10111111 "
b10111111 7
1P
b1100111 ("
b1100111 #"
b1100111 |
b11111111 Y
1)
#1075000000
0)
#1080000000
b1100110 '
b1100110 O
b1100110 -"
b100 ,"
0(
1M
b1101000 |
b1101000 #"
b1101000 ("
b1100110 "
b1100110 7
0P
1)
#1085000000
0)
#1090000000
b111111 '
b111111 O
b111111 -"
b0 ,"
1(
b10111111 "
b10111111 7
1P
b1101001 ("
b1101001 #"
b1101001 |
b101 N
b101 m
b101 x
1k
1)
#1095000000
0)
#1100000000
1=
bx0000011 4
1-
b1100110 '
b1100110 O
b1100110 -"
b100 ,"
0(
b1101010 |
b1101010 #"
b1101010 ("
b1100110 "
b1100110 7
0P
b101 S
b101 +"
b101 Q
1)
#1105000000
0)
#1110000000
b111111 '
b111111 O
b111111 -"
b0 ,"
1(
b101 /"
b10111111 "
b10111111 7
1P
b1101011 ("
b1101011 #"
b1101011 |
b1 \
1)
#1115000000
0)
#1120000000
b1101101 '
b1101101 O
b1101101 -"
b101 ,"
0(
b11 \
b1101100 |
b1101100 #"
b1101100 ("
b1101101 "
b1101101 7
0P
1)
#1125000000
0)
#1130000000
b111111 '
b111111 O
b111111 -"
b0 ,"
1(
b10111111 "
b10111111 7
1P
b1101101 ("
b1101101 #"
b1101101 |
b111 \
1)
#1135000000
0)
#1140000000
b1101101 '
b1101101 O
b1101101 -"
b101 ,"
0(
b1111 \
b1101110 |
b1101110 #"
b1101110 ("
b1101101 "
b1101101 7
0P
1)
#1145000000
0)
#1150000000
b111111 '
b111111 O
b111111 -"
b0 ,"
1(
b10111111 "
b10111111 7
1P
b1101111 ("
b1101111 #"
b1101111 |
b11111 \
1)
#1155000000
0)
#1160000000
b1101101 '
b1101101 O
b1101101 -"
b101 ,"
0(
b111111 \
b1110000 |
b1110000 #"
b1110000 ("
b1101101 "
b1101101 7
0P
1)
#1165000000
0)
#1170000000
b111111 '
b111111 O
b111111 -"
b0 ,"
1(
b10111111 "
b10111111 7
1P
b1110001 ("
b1110001 #"
b1110001 |
b1111111 \
1)
#1175000000
0)
#1180000000
b1101101 '
b1101101 O
b1101101 -"
b101 ,"
0(
b11111111 \
b1110010 |
b1110010 #"
b1110010 ("
b1101101 "
b1101101 7
0P
1)
#1185000000
0)
#1190000000
0<
bx0000010 4
0,
b111111 '
b111111 O
b111111 -"
b0 ,"
1(
b10111111 "
b10111111 7
1P
b1110011 ("
b1110011 #"
b1110011 |
1L
1)
#1195000000
0)
#1200000000
b1101101 '
b1101101 O
b1101101 -"
b101 ,"
0(
b11111110 Y
1l
b1110100 |
b1110100 #"
b1110100 ("
b1101101 "
b1101101 7
0P
1)
#1205000000
0)
#1210000000
b111111 '
b111111 O
b111111 -"
b0 ,"
1(
b10111111 "
b10111111 7
1P
b1110101 ("
b1110101 #"
b1110101 |
b11111100 Y
1)
#1215000000
0)
#1220000000
b1101101 '
b1101101 O
b1101101 -"
b101 ,"
0(
b11111000 Y
b1110110 |
b1110110 #"
b1110110 ("
b1101101 "
b1101101 7
0P
1)
#1225000000
0)
#1230000000
b111111 '
b111111 O
b111111 -"
b0 ,"
1(
b10111111 "
b10111111 7
1P
b1110111 ("
b1110111 #"
b1110111 |
b11110000 Y
1)
#1235000000
0)
#1240000000
b1101101 '
b1101101 O
b1101101 -"
b101 ,"
0(
b11100000 Y
b1111000 |
b1111000 #"
b1111000 ("
b1101101 "
b1101101 7
0P
1)
#1245000000
0)
#1250000000
b111111 '
b111111 O
b111111 -"
b0 ,"
1(
b10111111 "
b10111111 7
1P
b1111001 ("
b1111001 #"
b1111001 |
b11000000 Y
1)
#1255000000
0)
#1260000000
b1101101 '
b1101101 O
b1101101 -"
b101 ,"
0(
b10000000 Y
b1111010 |
b1111010 #"
b1111010 ("
b1101101 "
b1101101 7
0P
1)
#1265000000
0)
#1270000000
b111111 '
b111111 O
b111111 -"
b0 ,"
1(
b10111111 "
b10111111 7
1P
b1111011 ("
b1111011 #"
b1111011 |
b0 Y
1)
#1275000000
0)
#1280000000
b1101101 '
b1101101 O
b1101101 -"
b101 ,"
0(
0M
b1111100 |
b1111100 #"
b1111100 ("
b1101101 "
b1101101 7
0P
1)
#1285000000
0)
#1290000000
b111111 '
b111111 O
b111111 -"
b0 ,"
1(
b10111111 "
b10111111 7
1P
b1111101 ("
b1111101 #"
b1111101 |
b110 N
b110 m
b110 x
0k
1)
#1295000000
0)
#1300000000
b1101101 '
b1101101 O
b1101101 -"
b101 ,"
0(
b1111110 |
b1111110 #"
b1111110 ("
b1101101 "
b1101101 7
0P
b110 S
b110 +"
b110 Q
1)
#1305000000
0)
#1310000000
b111111 '
b111111 O
b111111 -"
b0 ,"
1(
b110 /"
b10111111 "
b10111111 7
1P
b1111111 ("
b1111111 #"
b1111111 |
1)
#1315000000
0)
